          0--1
         /    \
      2--3    4--5
     /   \    /   \
  6--7    8--9    10--11
 /   \   /    \   /    \
12   13-14    15-16    17
 \   /   \    /   \    /
 18-19   20-21    22-23
 /   \   /    \   /    \
24   25-26    27-28    29
 \   /   \    /   \    /
 30-31   32-33    34-35
 /   \   /    \   /    \
36   37-38    39-40    41
 \   /   \    /   \    /
 42-43   44-45    46-47
     \   /    \   /
     48-49    50-51
         \    /
         52-53


Some paths
12 RRLRL
17 LRLRLR

initial campuses
CAMPUS_A 0,53
CAMPUS_B 12,41
CAMPUS_C 11,42

training centres
2 3 MTV
4 5 MMONEY
29 35 BQN
46 51 MJ
48 43 BPS
